<svg width="65" height="65" xmlns="http://www.w3.org/2000/svg">

 <g>
  <title>background</title>
  <rect fill="none" id="canvas_background" height="402" width="582" y="-1" x="-1"/>
 </g>
 <g>
  <title>Layer 1</title>
  <path stroke="#ffffff" id="svg_2" fill="#FFBE06" d="m45,3.881215l-20.719,0c-0.469,0 -0.875,0.325 -0.976,0.783l-1.258,1.297c0.228,0.035 1.072,0.389 1.282,0.474c0.442,0.124 0.852,0.303 1.232,0.53l0.241,-1.084l20.198,0c0.551,0 1,0.448 1,1l0,52c0,0.552 -0.449,1 -1,1l-34,0c-0.551,0 -1,-0.448 -1,-1l0,-37.323l0.509,-0.204c-0.208,-0.385 -0.379,-0.803 -0.497,-1.263c-0.054,-0.211 -0.104,-0.421 -0.153,-0.631l-1.231,0.492c-0.379,0.153 -0.628,0.52 -0.628,0.929l0,38c0,1.654 1.346,3 3,3l34,0c1.654,0 3,-1.346 3,-3l0,-52c0,-1.654 -1.346,-3 -3,-3z"/>
  <path id="svg_4" fill="#be305e" d="m55,29l-1,0c-1.654,0 -3,-1.346 -3,-3l0,-14c0,-1.654 1.346,-3 3,-3l1,0c1.654,0 3,1.346 3,3l0,14c0,1.654 -1.346,3 -3,3zm-1,-18c-0.551,0 -1,0.448 -1,1l0,14c0,0.552 0.449,1 1,1l1,0c0.551,0 1,-0.448 1,-1l0,-14c0,-0.552 -0.449,-1 -1,-1l-1,0z"/>
  <path id="svg_5" fill="#be305e" d="m58.458,32c-0.552,0 -1,-0.447 -1,-1s0.448,-1 1,-1c0.163,0 0.542,0 0.542,-1l0,-14c0,-0.552 -0.449,-1 -1,-1l-1,0c-0.552,0 -1,-0.447 -1,-1s0.448,-1 1,-1l1,0c1.654,0 3,1.346 3,3l0,14c0,1.822 -0.998,3 -2.542,3z"/>
  <path id="svg_7" fill="#FFFFFF" d="m56,53.5c0,0.828 -0.671,1.5 -1.5,1.5l0,0c-0.829,0 -1.5,-0.672 -1.5,-1.5l0,-24c0,-0.828 0.671,-1.5 1.5,-1.5l0,0c0.829,0 1.5,0.672 1.5,1.5l0,24z"/>
  <path id="svg_8" fill="#be305e" d="m54.5,56c-1.378,0 -2.5,-1.121 -2.5,-2.5l0,-24c0,-1.379 1.122,-2.5 2.5,-2.5s2.5,1.121 2.5,2.5l0,24c0,1.379 -1.122,2.5 -2.5,2.5z"/>
  <polygon id="svg_10" points="54.5,58 53,55 56,55   " fill="#FFFFFF"/>
  <path id="svg_11" fill="#be305e" d="m54.5,59c-0.379,0 -0.725,-0.214 -0.895,-0.553l-1.5,-3c-0.155,-0.31 -0.138,-0.678 0.044,-0.973s0.504,-0.474 0.851,-0.474l3,0c0.347,0 0.668,0.18 0.851,0.475s0.199,0.663 0.044,0.973l-1.5,3c-0.17,0.338 -0.516,0.552 -0.895,0.552z"/>
  <path id="svg_13" fill="#FFBE06" d="m19.214215,22l-10.333,0c-0.401,0 -0.764,-0.24 -0.921,-0.609c-0.156,-0.37 -0.077,-0.798 0.202,-1.086l15,-15.5c0.284,-0.293 0.717,-0.387 1.094,-0.231c0.378,0.152 0.625,0.519 0.625,0.926l0,9.596c0,2.413 0,6.904 -5.667,6.904zm-7.974,-2l7.974,0c3.158,0 3.667,-1.445 3.667,-4.904l0,-7.124l-11.641,12.028z"/>
  <path id="svg_14" fill="#92278F" d="m43,20l-14,0c-0.552,0 -1,-0.447 -1,-1s0.448,-1 1,-1l14,0c0.552,0 1,0.447 1,1s-0.448,1 -1,1z"/>
  <path id="svg_15" fill="#92278F" d="m43,27l-27,0c-0.552,0 -1,-0.447 -1,-1s0.448,-1 1,-1l27,0c0.552,0 1,0.447 1,1s-0.448,1 -1,1z"/>
  <path id="svg_16" fill="#92278F" d="m43,34l-28,0c-0.552,0 -1,-0.447 -1,-1s0.448,-1 1,-1l28,0c0.552,0 1,0.447 1,1s-0.448,1 -1,1z"/>
  <path id="svg_17" fill="#92278F" d="m43,41l-28,0c-0.552,0 -1,-0.447 -1,-1s0.448,-1 1,-1l28,0c0.552,0 1,0.447 1,1s-0.448,1 -1,1z"/>
  <path id="svg_18" fill="#92278F" d="m30,48l-15,0c-0.552,0 -1,-0.447 -1,-1s0.448,-1 1,-1l15,0c0.552,0 1,0.447 1,1s-0.448,1 -1,1z"/>
  <path id="svg_19" fill="#92278F" d="m39.83,44.17l3.17,11.83l-11.83,-3.17l8.66,-8.66m0,-1c-0.262,0 -0.517,0.103 -0.707,0.293l-8.66,8.66c-0.253,0.253 -0.352,0.621 -0.259,0.966c0.092,0.345 0.362,0.614 0.707,0.707l11.83,3.17c0.086,0.023 0.173,0.034 0.259,0.034c0.262,0 0.517,-0.103 0.707,-0.293c0.253,-0.253 0.352,-0.621 0.259,-0.966l-3.17,-11.83c-0.092,-0.345 -0.362,-0.614 -0.707,-0.707c-0.086,-0.023 -0.172,-0.034 -0.259,-0.034l0,0z"/>
  <path id="svg_20" fill="#92278F" d="m38.561,48.943l0.964,3.601l-3.6,-0.965l2.636,-2.636m0.518,-1.931l-5.085,5.085l6.946,1.861l-1.861,-6.946l0,0z"/>
 </g>
</svg>